<img class="lazy" data-src="path/to/image.jpg" />

<div class="lazy" data-src="path/to/image.jpg"></div>

$(function() {
    $('.lazy').Lazy();
});

$('.lazy').Lazy({
    // your configuration goes here
    scrollDirection: 'vertical',
    effect: 'fadeIn',
    visibleOnly: true,
    onError: function(element) {
        console.log('error loading ' + element.data('src'));
    }
});

http://jquery.eisbehr.de/lazy/#examples